Data Preprocessing
…
There are a number of groups of variables that have redundancies that we can handle by creating lookup tables.

traits <- select(seas4, trait, trait_description) %>% distinct()
treatments <- select(seas4, treatment_id, treatment) %>% distinct()
cultivars <- select(seas4, cultivar, cultivar_id) %>% distinct()
sites <- select(seas4, site_id, sitename, lat, lon) %>% distinct()
# pull out range, column, and direction from sites as new variables
tmp <- gsub("MAC Field Scanner Season 4 ", "", sites$sitename)
sites$range <- as.integer(gsub("Range ([0-9]+).*", "\\1", tmp))
sites$column <- as.integer(gsub(".*Column ([0-9]+).*", "\\1", tmp))
sites$dir <- trimws(gsub(".*Column [0-9]+(.*)", "\\1", tmp))

traits

# A tibble: 77 x 2
   trait               trait_description                                        
   <chr>               <chr>                                                    
 1 canopy_height       "top of the general canopy of the plant, discounting any…
 2 leaf_temperature    "temperature of the surface of a sunlit leaf"            
 3 panicle_count       ""                                                       
 4 panicle_volume      ""                                                       
 5 panicle_surface_ar… ""                                                       
 6 leaf_desiccation_p… "Presence or absence of leaves showing desiccation. 1 = …
 7 lodging_present     "Plant lodging: presence or absence of lodging or severe…
 8 absorbance_530      "Absorbance at 530 nm"                                   
 9 absorbance_605      "Absorbance at 605 nm"                                   
10 absorbance_730      "Absorbance at 730 nm"                                   
# … with 67 more rows

treatments

# A tibble: 3 x 2
  treatment_id treatment                               
         <dbl> <chr>                                   
1           NA <NA>                                    
2   6000000024 BAP 2017, water-deficit stress Aug 1-14 
3   6000000026 BAP 2017, water-deficit stress Aug 15-30

cultivars

# A tibble: 351 x 2
   cultivar cultivar_id
   <chr>          <dbl>
 1 PI570145  6000000961
 2 PI329510  6000000577
 3 PI510757  6000000850
 4 PI329865  6000000815
 5 PI569457  6000000935
 6 PI521152  6000000855
 7 PI569452  6000000931
 8 PI585961  6000000982
 9 PI570431  6000000968
10 PI257600  6000000751
# … with 341 more rows

sites

# A tibble: 2,247 x 7
      site_id sitename                              lat   lon range column dir  
        <dbl> <chr>                               <dbl> <dbl> <int>  <int> <chr>
 1 6000005565 MAC Field Scanner Season 4 Range 8…  33.1 -112.     8      8 ""   
 2 6000005562 MAC Field Scanner Season 4 Range 8…  33.1 -112.     8      9 ""   
 3 6000005559 MAC Field Scanner Season 4 Range 8…  33.1 -112.     8     10 ""   
 4 6000005553 MAC Field Scanner Season 4 Range 8…  33.1 -112.     8     12 ""   
 5 6000005588 MAC Field Scanner Season 4 Range 9…  33.1 -112.     9      3 ""   
 6 6000005591 MAC Field Scanner Season 4 Range 9…  33.1 -112.     9      4 ""   
 7 6000005252 MAC Field Scanner Season 4 Range 9…  33.1 -112.     9      5 ""   
 8 6000005253 MAC Field Scanner Season 4 Range 9…  33.1 -112.     9      7 ""   
 9 6000005603 MAC Field Scanner Season 4 Range 9…  33.1 -112.     9     11 ""   
10 6000005606 MAC Field Scanner Season 4 Range 9…  33.1 -112.     9     12 ""   
# … with 2,237 more rows
…
Let’s remove them.

seas4 <- select(seas4, one_of(setdiff(names(seas4), ignore_vars)))

Duplicates

There are duplicates present in the data that need to be removed. First, there are several ids that appear more than once in the data.

seas4 %>%
  group_by(id) %>%
  tally() %>%
  filter(n > 1) %>%
  arrange(-n)

# A tibble: 99,790 x 2
           id     n
        <dbl> <int>
 1 6001938532     4
 2 6001939975     4
 3 6001940820     4
 4 6001940821     4
 5 6001940823     4
 6 6001940824     4
 7 6001940825     4
 8 6001940828     4
 9 6001940829     4
10 6001940836     4
# … with 99,780 more rows
…
filter(seas4, id == 6001938532) %>% distinct()

# A tibble: 1 x 14
      id treatment_id sitename   lat   lon raw_date trait  mean units notes
   <dbl>        <dbl> <chr>    <dbl> <dbl> <chr>    <chr> <dbl> <chr> <chr>
1 6.00e9   6000000024 MAC Fie…  33.1 -112. 2017-07… cano…   111 cm    ""   
# … with 4 more variables: cultivar <chr>, entity <chr>, method_name <chr>,
#   trans_date <dttm>

It is the exact same data for every duplicate entry. I’m not sure why these are in the data, but it makes sense to only keep distinct rows of the data:

seas4 <- distinct(seas4)
seas4

# A tibble: 244,709 x 14
       id treatment_id sitename   lat   lon raw_date trait  mean units notes
    <dbl>        <dbl> <chr>    <dbl> <dbl> <chr>    <chr> <dbl> <chr> <chr>
 1 6.00e9           NA MAC Fie…  33.1 -112. 2017-05… cano…    13 cm    ""   
 2 6.00e9           NA MAC Fie…  33.1 -112. 2017-05… cano…    14 cm    ""   
 3 6.00e9           NA MAC Fie…  33.1 -112. 2017-05… cano…    12 cm    ""   
 4 6.00e9           NA MAC Fie…  33.1 -112. 2017-05… cano…    13 cm    ""   
 5 6.00e9           NA MAC Fie…  33.1 -112. 2017-05… cano…    14 cm    ""   
 6 6.00e9           NA MAC Fie…  33.1 -112. 2017-05… cano…    14 cm    ""   
 7 6.00e9           NA MAC Fie…  33.1 -112. 2017-05… cano…    12 cm    ""   
 8 6.00e9           NA MAC Fie…  33.1 -112. 2017-05… cano…    12 cm    ""   
 9 6.00e9           NA MAC Fie…  33.1 -112. 2017-05… cano…    14 cm    ""   
10 6.00e9           NA MAC Fie…  33.1 -112. 2017-05… cano…    14 cm    ""   
# … with 244,699 more rows, and 4 more variables: cultivar <chr>, entity <chr>,
#   method_name <chr>, trans_date <dttm>
…
I don’t know why there would be a different id for sets of measurements where every other variable has the same value, but it makes sense to remove these from the data as well.

seas4 <- seas4 %>%
  group_by_at(setdiff(names(seas4), "id")) %>%
  filter(row_number() == 1) %>%
  ungroup()

seas4

# A tibble: 223,585 x 14
       id treatment_id sitename   lat   lon raw_date trait  mean units notes
    <dbl>        <dbl> <chr>    <dbl> <dbl> <chr>    <chr> <dbl> <chr> <chr>
 1 6.00e9           NA MAC Fie…  33.1 -112. 2017-05… cano…    13 cm    ""   
 2 6.00e9           NA MAC Fie…  33.1 -112. 2017-05… cano…    14 cm    ""   
 3 6.00e9           NA MAC Fie…  33.1 -112. 2017-05… cano…    12 cm    ""   
 4 6.00e9           NA MAC Fie…  33.1 -112. 2017-05… cano…    13 cm    ""   
 5 6.00e9           NA MAC Fie…  33.1 -112. 2017-05… cano…    14 cm    ""   
 6 6.00e9           NA MAC Fie…  33.1 -112. 2017-05… cano…    14 cm    ""   
 7 6.00e9           NA MAC Fie…  33.1 -112. 2017-05… cano…    12 cm    ""   
 8 6.00e9           NA MAC Fie…  33.1 -112. 2017-05… cano…    12 cm    ""   
 9 6.00e9           NA MAC Fie…  33.1 -112. 2017-05… cano…    14 cm    ""   
10 6.00e9           NA MAC Fie…  33.1 -112. 2017-05… cano…    14 cm    ""   
# … with 223,575 more rows, and 4 more variables: cultivar <chr>, entity <chr>,
#   method_name <chr>, trans_date <dttm>
…
