Exploratory Analysis
…
The scientific goal is to predict final plant biomass, as measured by aboveground_dry_biomass, for each plant, using all the other traits available. We want to understand all of the variables to be able to know how to construct the appropriate dataset as input for our ML models. The challenge is that the traits measured for each plant are measured at different times, so at any given time point, we want to be able to construct a dataset with features that best represent the state of the measurements at that time.

library(tidyverse)
load("data/seas4.Rdata")

Number of measurements

With this data, we are dealing with several types of measurements taken at different times and from different locations. To get a feel for how many times variables are measured:

seas4 %>%
  group_by(trait) %>%
  tally() %>%
  arrange(-n)

# A tibble: 77 x 2
   trait                        n
   <chr>                    <int>
 1 surface_temperature      34978
 2 canopy_height            23969
 3 leaf_angle_mean          21702
 4 leaf_angle_chi           21701
 5 leaf_angle_alpha         21699
 6 leaf_angle_beta          21699
 7 leaf_desiccation_present  4179
 8 leaf_temperature          3701
 9 lodging_present           3477
10 panicle_surface_area      2465
# … with 67 more rows
…
As we go through each variable, we will be appending new features to the June 1 and July 1 ML datasets. Let’s start out with an empty dataset for each snapshot. Recall that the goal is to predict plant biomass for every cell in the data. Therefore, each row will be one grid cell and each column will be a feature.

# June 1 data
mldat1 <- sites %>%
  mutate(sitename2 = gsub(" (E|W)$", "", sitename)) %>%
  select(sitename2, range, column) %>%
  distinct()

# July 1 data
mldat2 <- mldat1

mldat1

# A tibble: 847 x 3
   sitename2                                    range column
   <chr>                                        <int>  <int>
 1 MAC Field Scanner Season 4 Range 8 Column 8      8      8
 2 MAC Field Scanner Season 4 Range 8 Column 9      8      9
 3 MAC Field Scanner Season 4 Range 8 Column 10     8     10
 4 MAC Field Scanner Season 4 Range 8 Column 12     8     12
 5 MAC Field Scanner Season 4 Range 9 Column 3      9      3
 6 MAC Field Scanner Season 4 Range 9 Column 4      9      4
 7 MAC Field Scanner Season 4 Range 9 Column 5      9      5
 8 MAC Field Scanner Season 4 Range 9 Column 7      9      7
 9 MAC Field Scanner Season 4 Range 9 Column 11     9     11
10 MAC Field Scanner Season 4 Range 9 Column 12     9     12
# … with 837 more rows
…
